<svg width="36" height="36" viewBox="0 0 36 36" fill="none" xmlns="http://www.w3.org/2000/svg">
<path d="M19.5 24.258L27.546 16.212L29.667 18.333L18 30L6.33301 18.333L8.45401 16.212L16.5 24.258V6H19.5V24.258Z" fill="white"/>
</svg>
