<svg width="52" height="52" viewBox="0 0 52 52" fill="none" xmlns="http://www.w3.org/2000/svg">
<g clip-path="url(#clip0)">
<path d="M20.7188 15.4375L23.1562 1.625H30.4688L31.6875 16.25V27.2188L28.4375 26L26 27.2188L23.9688 26L20.7188 27.2188V15.4375Z" fill="#C33422"/>
<path d="M48.75 16.2502C48.75 15.8927 49.1725 16.8569 41.0583 0.628524C40.6142 -0.270642 42.6183 0.000191156 11.9167 0.000191156C10.9633 0.000191156 11.4833 -0.465641 3.36917 15.7627C3.25 16.1094 3.25 15.5352 3.25 50.9169C3.25 51.2042 3.36414 51.4797 3.5673 51.6829C3.77047 51.8861 4.04602 52.0002 4.33333 52.0002H47.6667C47.954 52.0002 48.2295 51.8861 48.4327 51.6829C48.6359 51.4797 48.75 51.2042 48.75 50.9169C48.75 5.12436 48.815 18.8285 48.75 16.2502ZM45.9225 15.1669H32.4242L31.4925 2.16686H39.4117L45.9225 15.1669ZM26 25.8702C23.5408 24.646 24.3425 24.6894 21.6667 25.5777V17.3335H30.3333V25.5777C27.6683 24.6894 28.4592 24.646 26 25.8702ZM29.3258 2.16686L30.2575 15.1669H21.8292L23.6925 2.16686H29.3258ZM12.5883 2.16686H21.5042L19.6408 15.1669H6.08833L12.5883 2.16686ZM46.5833 49.8335H5.41667V17.3335H19.5C19.5 27.9069 19.4242 27.2569 19.6842 27.6577C19.7868 27.8041 19.9207 27.9257 20.0763 28.0138C20.2318 28.1019 20.405 28.1542 20.5833 28.1669C20.8433 28.1669 23.465 27.2677 23.7467 27.1702C26.4225 28.5135 25.6317 28.481 28.2533 27.1702C31.2758 28.1777 31.1783 28.1669 31.4167 28.1669C31.6763 28.1702 31.9286 28.0802 32.1274 27.9131C32.3262 27.7461 32.4585 27.5132 32.5 27.2569C32.5 26.9535 32.5 28.4052 32.5 17.3335H46.5833V49.8335Z" fill="#363940"/>
<path d="M34.6663 47.6667H43.333C43.6203 47.6667 43.8959 47.5525 44.099 47.3494C44.3022 47.1462 44.4163 46.8706 44.4163 46.5833V40.0833C44.4163 39.796 44.3022 39.5205 44.099 39.3173C43.8959 39.1141 43.6203 39 43.333 39H34.6663C34.379 39 34.1035 39.1141 33.9003 39.3173C33.6971 39.5205 33.583 39.796 33.583 40.0833V46.5833C33.583 46.8706 33.6971 47.1462 33.9003 47.3494C34.1035 47.5525 34.379 47.6667 34.6663 47.6667ZM35.7497 41.1667H42.2497V45.5H35.7497V41.1667Z" fill="#363940"/>
<path d="M8.66683 44.4167H15.1668C15.4541 44.4167 15.7297 44.3025 15.9329 44.0994C16.136 43.8962 16.2502 43.6206 16.2502 43.3333C16.2502 43.046 16.136 42.7705 15.9329 42.5673C15.7297 42.3641 15.4541 42.25 15.1668 42.25H8.66683C8.37951 42.25 8.10396 42.3641 7.9008 42.5673C7.69763 42.7705 7.5835 43.046 7.5835 43.3333C7.5835 43.6206 7.69763 43.8962 7.9008 44.0994C8.10396 44.3025 8.37951 44.4167 8.66683 44.4167Z" fill="#363940"/>
<path d="M17.3335 45.5H8.66683C8.37951 45.5 8.10396 45.6141 7.9008 45.8173C7.69763 46.0205 7.5835 46.296 7.5835 46.5833C7.5835 46.8706 7.69763 47.1462 7.9008 47.3494C8.10396 47.5525 8.37951 47.6667 8.66683 47.6667H17.3335C17.6208 47.6667 17.8964 47.5525 18.0995 47.3494C18.3027 47.1462 18.4168 46.8706 18.4168 46.5833C18.4168 46.296 18.3027 46.0205 18.0995 45.8173C17.8964 45.6141 17.6208 45.5 17.3335 45.5Z" fill="#363940"/>
</g>
<defs>
<clipPath id="clip0">
<rect width="52" height="52" fill="white"/>
</clipPath>
</defs>
</svg>
