<svg width="52" height="52" viewBox="0 0 52 52" fill="none" xmlns="http://www.w3.org/2000/svg">
<circle cx="26" cy="26" r="16.25" fill="#C33422"/>
<path d="M25.9994 8.66602C22.5711 8.66602 19.2199 9.6826 16.3695 11.5872C13.519 13.4918 11.2974 16.1989 9.98544 19.3662C8.67353 22.5334 8.33027 26.0186 8.99908 29.3809C9.66789 32.7433 11.3187 35.8318 13.7428 38.2559C16.1669 40.68 19.2555 42.3308 22.6178 42.9996C25.9801 43.6684 29.4653 43.3252 32.6325 42.0133C35.7998 40.7013 38.5069 38.4797 40.4115 35.6292C42.3161 32.7788 43.3327 29.4276 43.3327 25.9993C43.3327 21.4023 41.5065 16.9935 38.2559 13.7428C35.0052 10.4922 30.5964 8.66602 25.9994 8.66602ZM25.9994 41.166C22.9997 41.166 20.0674 40.2765 17.5732 38.61C15.0791 36.9434 13.1351 34.5747 11.9872 31.8034C10.8393 29.032 10.5389 25.9825 11.1241 23.0405C11.7093 20.0984 13.1538 17.396 15.2749 15.2749C17.396 13.1538 20.0984 11.7093 23.0405 11.1241C25.9825 10.5389 29.032 10.8392 31.8034 11.9872C34.5747 13.1351 36.9434 15.0791 38.61 17.5732C40.2765 20.0673 41.166 22.9997 41.166 25.9993C41.166 30.0218 39.5681 33.8795 36.7238 36.7238C33.8795 39.5681 30.0218 41.166 25.9994 41.166Z" fill="#363940"/>
<path d="M18.8228 26.5418L23.5623 31.2814L33.0415 21.8022" stroke="#363940" stroke-width="2" stroke-linecap="round" stroke-linejoin="round"/>
<path d="M51.7177 25.2736L47.2327 20.3119L48.6411 13.8119C48.7 13.5482 48.6582 13.2719 48.5239 13.0374C48.3896 12.8029 48.1725 12.6271 47.9152 12.5444L41.5452 10.4536L39.4977 4.08356C39.415 3.82629 39.2392 3.6092 39.0047 3.47492C38.7702 3.34063 38.494 3.29883 38.2302 3.35773L31.7302 4.76606L26.7252 0.281062C26.5262 0.101402 26.2675 0.00195312 25.9994 0.00195312C25.7312 0.00195313 25.4726 0.101402 25.2736 0.281062L20.3119 4.76606L13.8119 3.35773C13.5482 3.29883 13.2719 3.34063 13.0374 3.47492C12.8029 3.6092 12.6271 3.82629 12.5444 4.08356L10.4536 10.4536L4.08356 12.5011C3.82629 12.5837 3.6092 12.7596 3.47492 12.9941C3.34063 13.2286 3.29883 13.5048 3.35773 13.7686L4.76606 20.2686L0.281062 25.2736C0.101402 25.4726 0.00195312 25.7312 0.00195312 25.9994C0.00195313 26.2675 0.101402 26.5262 0.281062 26.7252L4.76606 31.6869L3.35773 38.1869C3.29883 38.4506 3.34063 38.7269 3.47492 38.9614C3.6092 39.1959 3.82629 39.3717 4.08356 39.4544L10.4536 41.5019L12.5011 47.8719C12.5837 48.1292 12.7596 48.3463 12.9941 48.4805C13.2286 48.6148 13.5048 48.6566 13.7686 48.5977L20.2686 47.1894L25.2302 51.6744C25.4293 51.8541 25.6879 51.9535 25.9561 51.9535C26.2242 51.9535 26.4828 51.8541 26.6819 51.6744L31.6436 47.1894L38.1436 48.5977C38.4073 48.6566 38.6835 48.6148 38.918 48.4805C39.1525 48.3463 39.3284 48.1292 39.4111 47.8719L41.4586 41.5019L47.8286 39.4544C48.0858 39.3717 48.3029 39.1959 48.4372 38.9614C48.5715 38.7269 48.6133 38.4506 48.5544 38.1869L47.1461 31.6869L51.6311 26.7252C51.823 26.5371 51.9382 26.2844 51.9542 26.0161C51.9702 25.7478 51.8859 25.4832 51.7177 25.2736ZM45.2177 30.6902C44.7194 31.2536 44.8602 31.1452 46.3011 37.7752C40.0719 39.7794 39.8769 39.6602 39.6386 40.3969L37.7211 46.3552L31.5894 45.0444C30.7444 44.8711 30.5061 45.4019 25.9886 49.4969C20.9511 44.9469 21.1786 45.0227 20.5719 45.0227C20.3986 45.0227 20.8644 44.9361 14.2127 46.3552C12.2086 40.1261 12.3386 39.9311 11.5911 39.6927L5.67606 37.7319L6.99773 31.6002C7.16023 30.8636 7.07356 31.0044 2.54523 25.9994C7.11689 20.9294 7.16023 21.1244 6.99773 20.3986L5.67606 14.2669L11.6452 12.3494C12.4686 12.0894 12.3927 11.5044 14.2669 5.6869C20.9402 7.1169 20.7669 7.2469 21.3519 6.77023L25.9994 2.54523L30.6469 6.74856C31.2102 7.2469 31.1019 7.10606 37.7319 5.66523C39.7361 11.8944 39.6061 12.0894 40.3536 12.3277L46.3119 14.2452L45.0011 20.3769C44.8386 21.1136 44.9144 20.9511 49.4536 25.9777L45.2177 30.6902Z" fill="#363940"/>
</svg>
