<svg width="52" height="52" viewBox="0 0 52 52" fill="none" xmlns="http://www.w3.org/2000/svg">
<path d="M32.5 36C32.5 35.5 33 32.5 33 32L34.5 31.5H40.5H45L46 34.5C45.6667 35.3333 45 37.1 45 37.5C45 38 42.5 37.5 42 37.5C41.5 37.5 37 38 36.5 38C36 38 34 37.5 33.5 37.5C33 37.5 32.5 36.5 32.5 36Z" fill="#C33422"/>
<path d="M6.00014 9.5C1.60014 9.5 1.16681 13.1667 1.50014 15L1 16.5H50C50.3333 16.6667 51 16.4 51 14C51 11.6 48.3333 10 47 9.5H6.00014Z" fill="#C33422"/>
<path d="M46.5833 8.66675H5.41667C3.98008 8.66675 2.60233 9.23743 1.5865 10.2533C0.570683 11.2691 0 12.6468 0 14.0834L0 37.9167C0 39.3533 0.570683 40.7311 1.5865 41.7469C2.60233 42.7627 3.98008 43.3334 5.41667 43.3334H46.5833C47.2947 43.3334 47.999 43.1933 48.6562 42.9211C49.3134 42.6489 49.9105 42.2499 50.4135 41.7469C50.9165 41.2439 51.3155 40.6468 51.5877 39.9896C51.8599 39.3324 52 38.6281 52 37.9167V14.0834C52 13.3721 51.8599 12.6677 51.5877 12.0105C51.3155 11.3534 50.9165 10.7562 50.4135 10.2533C49.9105 9.75027 49.3134 9.35128 48.6562 9.07907C47.999 8.80685 47.2947 8.66675 46.5833 8.66675ZM2.16667 14.0834C2.16667 13.2215 2.50908 12.3948 3.11857 11.7853C3.72806 11.1758 4.55471 10.8334 5.41667 10.8334H46.5833C47.4453 10.8334 48.2719 11.1758 48.8814 11.7853C49.4909 12.3948 49.8333 13.2215 49.8333 14.0834V15.1667H2.16667V14.0834ZM46.5833 41.1667H5.41667C4.55471 41.1667 3.72806 40.8243 3.11857 40.2148C2.50908 39.6053 2.16667 38.7787 2.16667 37.9167V17.3334H49.8333V37.9167C49.8333 38.7787 49.4909 39.6053 48.8814 40.2148C48.2719 40.8243 47.4453 41.1667 46.5833 41.1667Z" fill="black"/>
<path d="M7.58398 28.1667H11.9173C12.7793 28.1667 13.6059 27.8243 14.2154 27.2148C14.8249 26.6053 15.1673 25.7786 15.1673 24.9167V22.75C15.1673 21.888 14.8249 21.0614 14.2154 20.4519C13.6059 19.8424 12.7793 19.5 11.9173 19.5H7.58398C6.72203 19.5 5.89538 19.8424 5.28589 20.4519C4.67639 21.0614 4.33398 21.888 4.33398 22.75V24.9167C4.33398 25.7786 4.67639 26.6053 5.28589 27.2148C5.89538 27.8243 6.72203 28.1667 7.58398 28.1667ZM6.50065 22.75C6.50065 22.4627 6.61479 22.1871 6.81795 21.984C7.02112 21.7808 7.29667 21.6667 7.58398 21.6667H11.9173C12.2046 21.6667 12.4802 21.7808 12.6834 21.984C12.8865 22.1871 13.0007 22.4627 13.0007 22.75V24.9167C13.0007 25.204 12.8865 25.4795 12.6834 25.6827C12.4802 25.8859 12.2046 26 11.9173 26H7.58398C7.29667 26 7.02112 25.8859 6.81795 25.6827C6.61479 25.4795 6.50065 25.204 6.50065 24.9167V22.75Z" fill="black"/>
<path d="M20.584 32.5H5.41732C5.13 32.5 4.85445 32.6141 4.65129 32.8173C4.44812 33.0205 4.33398 33.296 4.33398 33.5833C4.33398 33.8706 4.44812 34.1462 4.65129 34.3494C4.85445 34.5525 5.13 34.6667 5.41732 34.6667H20.584C20.8713 34.6667 21.1469 34.5525 21.35 34.3494C21.5532 34.1462 21.6673 33.8706 21.6673 33.5833C21.6673 33.296 21.5532 33.0205 21.35 32.8173C21.1469 32.6141 20.8713 32.5 20.584 32.5Z" fill="black"/>
<path d="M14.084 36.8335H5.41732C5.13 36.8335 4.85445 36.9476 4.65129 37.1508C4.44812 37.354 4.33398 37.6295 4.33398 37.9168C4.33398 38.2041 4.44812 38.4797 4.65129 38.6829C4.85445 38.886 5.13 39.0002 5.41732 39.0002H14.084C14.3713 39.0002 14.6469 38.886 14.85 38.6829C15.0532 38.4797 15.1673 38.2041 15.1673 37.9168C15.1673 37.6295 15.0532 37.354 14.85 37.1508C14.6469 36.9476 14.3713 36.8335 14.084 36.8335Z" fill="black"/>
<path d="M43.3327 39.0002H34.666C33.8041 39.0002 32.9774 38.6577 32.3679 38.0483C31.7584 37.4388 31.416 36.6121 31.416 35.7502V33.5835C31.416 32.7215 31.7584 31.8949 32.3679 31.2854C32.9774 30.6759 33.8041 30.3335 34.666 30.3335H43.3327C44.1946 30.3335 45.0213 30.6759 45.6308 31.2854C46.2403 31.8949 46.5827 32.7215 46.5827 33.5835V35.7502C46.5827 36.6121 46.2403 37.4388 45.6308 38.0483C45.0213 38.6577 44.1946 39.0002 43.3327 39.0002ZM34.666 32.5002C34.3787 32.5002 34.1031 32.6143 33.9 32.8175C33.6968 33.0206 33.5827 33.2962 33.5827 33.5835V35.7502C33.5827 36.0375 33.6968 36.313 33.9 36.5162C34.1031 36.7194 34.3787 36.8335 34.666 36.8335H43.3327C43.62 36.8335 43.8956 36.7194 44.0987 36.5162C44.3019 36.313 44.416 36.0375 44.416 35.7502V33.5835C44.416 33.2962 44.3019 33.0206 44.0987 32.8175C43.8956 32.6143 43.62 32.5002 43.3327 32.5002H34.666Z" fill="black"/>
</svg>
