<svg width="42" height="28" viewBox="0 0 42 28" fill="none" xmlns="http://www.w3.org/2000/svg">
<path d="M41.125 0.875H0.875C0.642936 0.875 0.420376 0.967187 0.256282 1.13128C0.0921872 1.29538 0 1.51794 0 1.75L0 26.25C0 26.4821 0.0921872 26.7046 0.256282 26.8687C0.420376 27.0328 0.642936 27.125 0.875 27.125H41.125C41.3571 27.125 41.5796 27.0328 41.7437 26.8687C41.9078 26.7046 42 26.4821 42 26.25V1.75C42 1.51794 41.9078 1.29538 41.7437 1.13128C41.5796 0.967187 41.3571 0.875 41.125 0.875ZM40.25 25.375H1.75V2.625H40.25V25.375Z" fill="#204987"/>
<path d="M4.375 20.125C5.07119 20.125 5.73887 20.4015 6.23116 20.8938C6.72344 21.3861 7 22.0538 7 22.75C7 22.982 7.09219 23.2046 7.25628 23.3687C7.42038 23.5328 7.64294 23.625 7.875 23.625H34.125C34.3571 23.625 34.5796 23.5328 34.7437 23.3687C34.9078 23.2046 35 22.982 35 22.75C35 22.0538 35.2766 21.3861 35.7688 20.8938C36.2611 20.4015 36.9288 20.125 37.625 20.125C37.8571 20.125 38.0796 20.0328 38.2437 19.8687C38.4078 19.7046 38.5 19.4821 38.5 19.25V8.75C38.5 8.51793 38.4078 8.29537 38.2437 8.13128C38.0796 7.96718 37.8571 7.875 37.625 7.875C36.9288 7.875 36.2611 7.59844 35.7688 7.10615C35.2766 6.61387 35 5.94619 35 5.25C35 5.01794 34.9078 4.79538 34.7437 4.63128C34.5796 4.46719 34.3571 4.375 34.125 4.375H7.875C7.64294 4.375 7.42038 4.46719 7.25628 4.63128C7.09219 4.79538 7 5.01794 7 5.25C7 5.94619 6.72344 6.61387 6.23116 7.10615C5.73887 7.59844 5.07119 7.875 4.375 7.875C4.14294 7.875 3.92038 7.96718 3.75628 8.13128C3.59219 8.29537 3.5 8.51793 3.5 8.75V19.25C3.5 19.4821 3.59219 19.7046 3.75628 19.8687C3.92038 20.0328 4.14294 20.125 4.375 20.125ZM5.25 9.5375C6.09078 9.36602 6.86257 8.95109 7.46933 8.34433C8.07609 7.73757 8.49103 6.96578 8.6625 6.125H33.3375C33.509 6.96578 33.9239 7.73757 34.5307 8.34433C35.1374 8.95109 35.9092 9.36602 36.75 9.5375V18.4625C35.9092 18.634 35.1374 19.0489 34.5307 19.6557C33.9239 20.2624 33.509 21.0342 33.3375 21.875H8.6625C8.49103 21.0342 8.07609 20.2624 7.46933 19.6557C6.86257 19.0489 6.09078 18.634 5.25 18.4625V9.5375Z" fill="#204987"/>
<path d="M21 19.25C22.0384 19.25 23.0534 18.9421 23.9167 18.3652C24.7801 17.7883 25.453 16.9684 25.8504 16.0091C26.2477 15.0498 26.3517 13.9942 26.1491 12.9758C25.9466 11.9574 25.4465 11.0219 24.7123 10.2877C23.9781 9.55347 23.0426 9.05345 22.0242 8.85088C21.0058 8.64831 19.9502 8.75227 18.9909 9.14963C18.0316 9.54699 17.2117 10.2199 16.6348 11.0833C16.0579 11.9466 15.75 12.9617 15.75 14C15.75 15.3924 16.3031 16.7277 17.2877 17.7123C18.2723 18.6969 19.6076 19.25 21 19.25ZM21 10.5C21.6922 10.5 22.3689 10.7053 22.9445 11.0899C23.5201 11.4744 23.9687 12.0211 24.2336 12.6606C24.4985 13.3002 24.5678 14.0039 24.4327 14.6828C24.2977 15.3618 23.9644 15.9854 23.4749 16.4749C22.9854 16.9644 22.3617 17.2977 21.6828 17.4328C21.0039 17.5678 20.3001 17.4985 19.6606 17.2336C19.0211 16.9687 18.4744 16.5201 18.0899 15.9445C17.7053 15.3689 17.5 14.6922 17.5 14C17.5 13.0717 17.8687 12.1815 18.5251 11.5251C19.1815 10.8688 20.0717 10.5 21 10.5Z" fill="#204987"/>
<path d="M11.375 14.875C11.6071 14.875 11.8296 14.7828 11.9937 14.6187C12.1578 14.4546 12.25 14.2321 12.25 14C12.25 13.7679 12.1578 13.5454 11.9937 13.3813C11.8296 13.2172 11.6071 13.125 11.375 13.125H7.875C7.64294 13.125 7.42038 13.2172 7.25628 13.3813C7.09219 13.5454 7 13.7679 7 14C7 14.2321 7.09219 14.4546 7.25628 14.6187C7.42038 14.7828 7.64294 14.875 7.875 14.875H11.375Z" fill="#204987"/>
<path d="M30.625 14.875H34.125C34.3571 14.875 34.5796 14.7828 34.7437 14.6187C34.9078 14.4546 35 14.2321 35 14C35 13.7679 34.9078 13.5454 34.7437 13.3813C34.5796 13.2172 34.3571 13.125 34.125 13.125H30.625C30.3929 13.125 30.1704 13.2172 30.0063 13.3813C29.8422 13.5454 29.75 13.7679 29.75 14C29.75 14.2321 29.8422 14.4546 30.0063 14.6187C30.1704 14.7828 30.3929 14.875 30.625 14.875Z" fill="#204987"/>
</svg>
