<svg width="42" height="42" viewBox="0 0 42 42" fill="none" xmlns="http://www.w3.org/2000/svg">
<g clip-path="url(#clip0)">
<path d="M21 35C18.2311 35 15.5243 34.1789 13.222 32.6406C10.9197 31.1022 9.12532 28.9157 8.06569 26.3576C7.00607 23.7994 6.72882 20.9845 7.26901 18.2687C7.80921 15.553 9.14258 13.0584 11.1005 11.1005C13.0584 9.14258 15.553 7.80921 18.2687 7.26901C20.9845 6.72882 23.7994 7.00607 26.3576 8.06569C28.9157 9.12532 31.1022 10.9197 32.6406 13.222C34.1789 15.5243 35 18.2311 35 21C35 24.713 33.525 28.274 30.8995 30.8995C28.274 33.525 24.713 35 21 35ZM21 8.75001C18.5772 8.75001 16.2088 9.46846 14.1943 10.8145C12.1798 12.1606 10.6097 14.0737 9.68248 16.3121C8.75531 18.5505 8.51272 21.0136 8.98539 23.3899C9.45805 25.7661 10.6248 27.9489 12.3379 29.6621C14.0511 31.3753 16.2339 32.542 18.6101 33.0146C20.9864 33.4873 23.4495 33.2447 25.6879 32.3175C27.9263 31.3904 29.8395 29.8202 31.1855 27.8057C32.5316 25.7912 33.25 23.4228 33.25 21C33.25 17.7511 31.9594 14.6353 29.6621 12.3379C27.3647 10.0406 24.2489 8.75001 21 8.75001Z" fill="#204987"/>
<path d="M20.9999 42.0001C20.5099 42.0001 20.7461 42.0789 16.4061 38.1501L11.1561 39.2876C10.9431 39.3352 10.72 39.3014 10.5306 39.193C10.3412 39.0845 10.1992 38.9092 10.1324 38.7014L8.44364 33.5564L3.29864 31.9026C3.09084 31.8358 2.9155 31.6938 2.80704 31.5044C2.69857 31.315 2.66482 31.0919 2.71239 30.8789L3.84989 25.6289L0.227387 21.5864C0.0822772 21.4256 0.00195312 21.2167 0.00195312 21.0001C0.00195313 20.7835 0.0822772 20.5747 0.227387 20.4139L3.84989 16.4064L2.71239 11.1564C2.66482 10.9434 2.69857 10.7203 2.80704 10.5309C2.9155 10.3414 3.09084 10.1994 3.29864 10.1326L8.44364 8.44388L10.0974 3.29888C10.1642 3.09108 10.3062 2.91575 10.4956 2.80728C10.685 2.69882 10.9081 2.66506 11.1211 2.71263L16.3711 3.85013L20.4136 0.227631C20.5744 0.0825213 20.7833 0.00219727 20.9999 0.00219727C21.2165 0.00219727 21.4254 0.0825213 21.5861 0.227631L25.5936 3.85013L30.8436 2.71263C31.0567 2.66506 31.2798 2.69882 31.4692 2.80728C31.6586 2.91575 31.8006 3.09108 31.8674 3.29888L33.5211 8.44388L38.6661 10.0976C38.8739 10.1644 39.0493 10.3064 39.1577 10.4959C39.2662 10.6853 39.3 10.9084 39.2524 11.1214L38.1149 16.3714L41.7374 20.3789C41.8825 20.5397 41.9628 20.7485 41.9628 20.9651C41.9628 21.1817 41.8825 21.3906 41.7374 21.5514L38.1499 25.5939L39.2874 30.8439C39.335 31.0569 39.3012 31.28 39.1927 31.4694C39.0843 31.6588 38.9089 31.8008 38.7011 31.8676L33.5561 33.5214L31.9024 38.6664C31.8356 38.8742 31.6936 39.0495 31.5042 39.158C31.3148 39.2664 31.0917 39.3002 30.8786 39.2526L25.6286 38.1151C21.2886 42.0439 21.4636 42.0001 20.9999 42.0001ZM16.6249 36.3301C17.0886 36.3301 16.9749 36.3301 20.9999 39.9439C25.0424 36.2951 24.9374 36.2164 25.5236 36.3476L30.4761 37.4151L32.0249 32.5939C32.2349 31.9289 32.7074 31.9901 37.4061 30.4764C36.2511 25.0864 36.1461 25.2264 36.5311 24.7539L39.9436 21.0001L36.5486 17.2464C36.1461 16.7914 36.2599 16.8789 37.4236 11.5239C32.3924 9.90513 32.2349 10.0101 32.0424 9.40638L30.4936 4.59388L25.5236 5.65263C24.9374 5.78388 25.0599 5.72263 20.9999 2.05638C16.9049 5.74888 17.0536 5.78388 16.4761 5.65263L11.5236 4.59388L9.97489 9.40638C9.76489 10.0714 9.29239 10.0101 4.58489 11.5239C5.70489 16.6951 5.86239 16.7739 5.45989 17.2464L2.05614 21.0001L5.45114 24.7539C5.85364 25.2089 5.74864 25.0951 4.57614 30.4764C9.61614 32.0951 9.77364 31.9901 9.96614 32.5939L11.5149 37.4151C16.9399 36.2426 16.5286 36.3301 16.6249 36.3301Z" fill="#204987"/>
<path d="M14.8752 28.0002C14.7014 28.0012 14.5312 27.9504 14.3864 27.8543C14.2416 27.7583 14.1287 27.6212 14.062 27.4607C13.9954 27.3002 13.978 27.1235 14.0122 26.9531C14.0464 26.7827 14.1306 26.6263 14.254 26.5039L26.5039 14.2539C26.6687 14.0891 26.8922 13.9966 27.1252 13.9966C27.3582 13.9966 27.5817 14.0891 27.7464 14.2539C27.9112 14.4187 28.0038 14.6421 28.0038 14.8752C28.0038 15.1082 27.9112 15.3316 27.7464 15.4964C14.359 28.8752 15.3915 28.0002 14.8752 28.0002Z" fill="#204987"/>
<path d="M16.625 20.125C15.9328 20.125 15.2561 19.9197 14.6805 19.5351C14.1049 19.1506 13.6563 18.6039 13.3914 17.9644C13.1265 17.3249 13.0572 16.6211 13.1923 15.9422C13.3273 15.2633 13.6606 14.6396 14.1501 14.1501C14.6396 13.6606 15.2633 13.3273 15.9422 13.1923C16.6211 13.0572 17.3249 13.1265 17.9644 13.3914C18.6039 13.6563 19.1506 14.1049 19.5351 14.6805C19.9197 15.2561 20.125 15.9328 20.125 16.625C20.125 17.5533 19.7563 18.4435 19.0999 19.0999C18.4435 19.7563 17.5533 20.125 16.625 20.125ZM16.625 14.875C16.2789 14.875 15.9405 14.9776 15.6528 15.1699C15.365 15.3622 15.1407 15.6355 15.0082 15.9553C14.8758 16.2751 14.8411 16.6269 14.9086 16.9664C14.9762 17.3059 15.1428 17.6177 15.3876 17.8624C15.6323 18.1072 15.9441 18.2739 16.2836 18.3414C16.6231 18.4089 16.9749 18.3742 17.2947 18.2418C17.6145 18.1093 17.8878 17.885 18.0801 17.5973C18.2724 17.3095 18.375 16.9711 18.375 16.625C18.375 16.1609 18.1906 15.7158 17.8624 15.3876C17.5342 15.0594 17.0891 14.875 16.625 14.875Z" fill="#204987"/>
<path d="M25.375 28.8752C24.6828 28.8752 24.0061 28.67 23.4305 28.2854C22.8549 27.9008 22.4063 27.3542 22.1414 26.7146C21.8765 26.0751 21.8072 25.3714 21.9423 24.6924C22.0773 24.0135 22.4106 23.3899 22.9001 22.9004C23.3896 22.4109 24.0132 22.0775 24.6922 21.9425C25.3711 21.8074 26.0748 21.8768 26.7144 22.1417C27.3539 22.4066 27.9005 22.8552 28.2851 23.4307C28.6697 24.0063 28.875 24.683 28.875 25.3752C28.875 26.3035 28.5062 27.1937 27.8499 27.8501C27.1935 28.5065 26.3033 28.8752 25.375 28.8752ZM25.375 23.6252C25.0289 23.6252 24.6905 23.7279 24.4027 23.9202C24.115 24.1125 23.8907 24.3858 23.7582 24.7055C23.6258 25.0253 23.5911 25.3772 23.6586 25.7166C23.7261 26.0561 23.8928 26.3679 24.1376 26.6127C24.3823 26.8574 24.6941 27.0241 25.0336 27.0916C25.3731 27.1591 25.7249 27.1245 26.0447 26.992C26.3645 26.8596 26.6378 26.6353 26.8301 26.3475C27.0224 26.0597 27.125 25.7214 27.125 25.3752C27.125 24.9111 26.9406 24.466 26.6124 24.1378C26.2842 23.8096 25.8391 23.6252 25.375 23.6252Z" fill="#204987"/>
</g>
<defs>
<clipPath id="clip0">
<rect width="42" height="42" fill="white"/>
</clipPath>
</defs>
</svg>
