<svg width="16" height="16" viewBox="0 0 16 16" fill="none" xmlns="http://www.w3.org/2000/svg">
<path d="M8 3.33325V12.6666" stroke="#1D1D1D" stroke-linecap="round" stroke-linejoin="round"/>
<path d="M3.33398 8H12.6673" stroke="#1D1D1D" stroke-linecap="round" stroke-linejoin="round"/>
</svg>
