<svg width="54" height="54" viewBox="0 0 54 54" fill="none" xmlns="http://www.w3.org/2000/svg">
<g clip-path="url(#clip0)">
<circle cx="23" cy="19" r="4" fill="#C33422"/>
<path d="M53.0888 27L47.8913 25.9763C46.8792 23.9794 45.4155 22.246 43.6163 20.9138C43.9426 19.7888 43.875 19.6538 43.875 13.4775C43.875 12.5824 43.5195 11.724 42.8865 11.0911C42.2536 10.4581 41.3952 10.1025 40.5 10.1025H39.375C37.1843 10.1045 35.0696 10.9055 33.4272 12.3552C31.7848 13.805 30.7276 15.804 30.4538 17.9775H28.0126C27.741 16.7031 27.0354 15.5625 26.0164 14.7506C24.9973 13.9386 23.7279 13.5055 22.4251 13.5255C21.1222 13.5454 19.8667 14.017 18.8729 14.8598C17.8791 15.7025 17.2088 16.8642 16.9763 18.1463C13.7361 18.625 10.7521 20.1825 8.5065 22.5669C6.26092 24.9512 4.88506 28.0233 4.6013 31.2863C3.9277 31.072 3.33839 30.6515 2.91653 30.0844C2.49467 29.5172 2.26155 28.8318 2.25005 28.125C2.25005 27.8267 2.13153 27.5405 1.92055 27.3295C1.70957 27.1186 1.42342 27 1.12505 27C-1.2037 27 0.101302 32.76 4.50005 33.6375C4.66428 35.9844 5.39225 38.257 6.62218 40.2625C7.85211 42.268 9.5477 43.9472 11.5651 45.1575L12.3413 53.0325C12.3693 53.311 12.5001 53.569 12.7081 53.7563C12.9161 53.9435 13.1864 54.0464 13.4663 54.045H20.2163C20.4962 54.0464 20.7665 53.9435 20.9745 53.7563C21.1825 53.569 21.3133 53.311 21.3413 53.0325L21.9038 47.295H32.0288L32.5913 53.0325C32.6193 53.311 32.7501 53.569 32.9581 53.7563C33.1661 53.9435 33.4364 54.0464 33.7163 54.045H40.4663C40.7462 54.0464 41.0165 53.9435 41.2245 53.7563C41.4325 53.569 41.5633 53.311 41.5913 53.0325L42.3788 45.1575C44.7544 43.7653 46.6707 41.7082 47.8913 39.24C52.1101 38.205 52.7063 38.2838 52.83 37.2825L53.955 28.2825C54.0022 27.9985 53.9386 27.7072 53.7775 27.4687C53.6164 27.2301 53.3699 27.0624 53.0888 27ZM39.375 12.375H40.5C40.7984 12.375 41.0846 12.4936 41.2955 12.7045C41.5065 12.9155 41.625 13.2017 41.625 13.5V19.125C41.625 20.3185 41.1509 21.4631 40.307 22.307C39.4631 23.1509 38.3185 23.625 37.125 23.625C35.9316 23.625 34.787 23.1509 33.9431 22.307C33.0992 21.4631 32.6251 20.3185 32.6251 19.125C32.6251 17.3348 33.3362 15.6179 34.6021 14.3521C35.868 13.0862 37.5848 12.375 39.375 12.375ZM22.5001 15.75C23.1676 15.75 23.8201 15.948 24.3751 16.3188C24.9301 16.6897 25.3627 17.2168 25.6181 17.8335C25.8736 18.4502 25.9404 19.1288 25.8102 19.7835C25.68 20.4382 25.3585 21.0395 24.8865 21.5115C24.4145 21.9835 23.8132 22.305 23.1585 22.4352C22.5038 22.5654 21.8252 22.4986 21.2085 22.2431C20.5918 21.9877 20.0647 21.5551 19.6938 21.0001C19.323 20.4451 19.1251 19.7926 19.1251 19.125C19.1251 18.2299 19.4806 17.3715 20.1136 16.7386C20.7465 16.1056 21.6049 15.75 22.5001 15.75ZM50.7263 36.2138C47.0813 37.1138 46.7551 37.1363 46.4513 37.395C45.9451 37.8 45.6525 39.3525 43.6275 41.3775C39.4875 45.5175 40.6238 40.3763 39.4875 51.75H34.7738L34.2001 46.0125C34.1721 45.7341 34.0413 45.476 33.8333 45.2888C33.6253 45.1016 33.3549 44.9986 33.0751 45C20.2838 45 20.1488 44.7188 19.8563 45.855C19.7776 46.1363 19.8563 45.0225 19.2263 51.75H14.5126C13.7251 43.875 13.8038 44.3475 13.6801 44.055C13.5635 43.8333 13.3981 43.641 13.1963 43.4925C2.8913 37.8675 5.5688 22.365 17.0438 20.43C17.6288 22.8938 18.9901 22.5 16.8751 22.5C16.5767 22.5 16.2905 22.6186 16.0796 22.8295C15.8686 23.0405 15.7501 23.3267 15.7501 23.625C15.7501 23.9234 15.8686 24.2096 16.0796 24.4205C16.2905 24.6315 16.5767 24.75 16.8751 24.75H28.1251C28.4234 24.75 28.7096 24.6315 28.9205 24.4205C29.1315 24.2096 29.2501 23.9234 29.2501 23.625C29.2501 23.3267 29.1315 23.0405 28.9205 22.8295C28.7096 22.6186 28.4234 22.5 28.1251 22.5C25.9426 22.5 27.4838 22.8488 28.0126 20.25H30.4763C30.7025 21.5652 31.3135 22.7837 32.2319 23.7517C33.1504 24.7198 34.3352 25.3939 35.6366 25.6888C36.938 25.9838 38.2977 25.8864 39.5438 25.4089C40.7898 24.9315 41.8664 24.0954 42.6376 23.0063C46.125 25.875 45.675 27.855 46.9463 28.125L51.6263 29.0475L50.7263 36.2138Z" fill="#363940"/>
<path d="M41.6248 27C38.2498 27 37.2148 31.5 39.3748 31.5C39.6732 31.5 39.9594 31.3815 40.1703 31.1705C40.3813 30.9595 40.4998 30.6734 40.4998 30.375C40.4998 30.0766 40.6184 29.7905 40.8294 29.5795C41.0403 29.3685 41.3265 29.25 41.6248 29.25C41.9232 29.25 42.2094 29.3685 42.4203 29.5795C42.6313 29.7905 42.7499 30.0766 42.7499 30.375C42.7499 30.6734 42.8684 30.9595 43.0794 31.1705C43.2903 31.3815 43.5765 31.5 43.8749 31.5C46.0236 31.5 44.9999 27 41.6248 27Z" fill="#363940"/>
<path d="M28.125 11.25V6.75C28.125 6.45163 28.0065 6.16548 27.7955 5.95451C27.5845 5.74353 27.2984 5.625 27 5.625C26.7016 5.625 26.4155 5.74353 26.2045 5.95451C25.9935 6.16548 25.875 6.45163 25.875 6.75V11.25C25.875 11.5484 25.9935 11.8345 26.2045 12.0455C26.4155 12.2565 26.7016 12.375 27 12.375C27.2984 12.375 27.5845 12.2565 27.7955 12.0455C28.0065 11.8345 28.125 11.5484 28.125 11.25Z" fill="#363940"/>
<path d="M19.125 12.375V7.875C19.125 7.57663 19.0065 7.29048 18.7955 7.07951C18.5845 6.86853 18.2984 6.75 18 6.75C17.7016 6.75 17.4155 6.86853 17.2045 7.07951C16.9935 7.29048 16.875 7.57663 16.875 7.875V12.375C16.875 12.6734 16.9935 12.9595 17.2045 13.1705C17.4155 13.3815 17.7016 13.5 18 13.5C18.2984 13.5 18.5845 13.3815 18.7955 13.1705C19.0065 12.9595 19.125 12.6734 19.125 12.375Z" fill="#363940"/>
<path d="M23.625 7.875V1.125C23.625 0.826631 23.5065 0.540483 23.2955 0.329505C23.0845 0.118526 22.7984 0 22.5 0C22.2016 0 21.9155 0.118526 21.7045 0.329505C21.4935 0.540483 21.375 0.826631 21.375 1.125V7.875C21.375 8.17337 21.4935 8.45952 21.7045 8.6705C21.9155 8.88147 22.2016 9 22.5 9C22.7984 9 23.0845 8.88147 23.2955 8.6705C23.5065 8.45952 23.625 8.17337 23.625 7.875Z" fill="#363940"/>
</g>
<defs>
<clipPath id="clip0">
<rect width="54" height="54" fill="white"/>
</clipPath>
</defs>
</svg>
