<svg width="14" height="8" viewBox="0 0 14 8" fill="none" xmlns="http://www.w3.org/2000/svg">
<path d="M7.00026 5.172L11.9503 0.222L13.3643 1.636L7.00026 8L0.636258 1.636L2.05026 0.221999L7.00026 5.172Z" fill="#363940"/>
</svg>
